Electronic Health Records: Who Uses It?
…
We found that the majority of EHR products used were from the top 10 vendors. Interestingly, though, Minnesota had almost 100% usage of the top 10 vendors. This could potentially be because many of the big vendors are based in the Midwest (ie Epic, Mayo Clinic, Cerner, etc).

#most common specialties in general
EHR_EPs %>% group_by(pri_spec) %>% summarize(num = n()) %>% arrange(desc(num))

## # A tibble: 50 x 2
##                               pri_spec   num
##                                 <fctr> <int>
##  1                     FAMILY PRACTICE   192
##  2                   INTERNAL MEDICINE   126
##  3                  ORTHOPEDIC SURGERY    64
##  4                       ENDOCRINOLOGY    54
##  5                     GENERAL SURGERY    42
##  6                           NEUROLOGY    41
##  7 CARDIOVASCULAR DISEASE (CARDIOLOGY)    35
##  8                    GASTROENTEROLOGY    29
##  9               OBSTETRICS/GYNECOLOGY    24
## 10                   PULMONARY DISEASE    24
## # ... with 40 more rows
…
